Psychometrics in R
…
???

This function will just allow us to more easilys see our data

---
### Load data

```r
csv <- read_csv("~/GitHub/psychometrics-class/sncss.csv")
csv
```

```
# A tibble: 2,052 x 6
      id name    scale domain  item response
   <dbl> <chr>   <chr> <chr>  <dbl>    <dbl>
 1     1 AAAS_AD AAAS  AD         1        4
 2     1 AAAS_AD AAAS  AD         2        4
 3     1 AAAS_AD AAAS  AD         3        5
 4     1 AAAS_AD AAAS  AD         4        2
 5     1 AAAS_AD AAAS  AD         5        1
 6     1 AAAS_AD AAAS  AD         6        4
 7     1 AAAS_AD AAAS  AD         7        5
 8     1 AAAS_AD AAAS  AD         8        3
 9     1 AAAS_AD AAAS  AD         9        3
10     1 AAAS_AD AAAS  AD        10        4
# ... with 2,042 more rows
```
…
---

### Item analysis

```r
csv %>%
  nest(-name) %>% 
  mutate(item_exam = map(data, item_example_helper)) %>% 
* unnest(item_exam)
```

```
# A tibble: 108 x 8
   name  item  sample_sd item_total item_tot_woi difficulty item_reliab
   <chr> <chr>     <dbl>      <dbl>        <dbl>      <dbl>       <dbl>
 1 AAAS~ 1          1.33      0.648       0.509        2.89       0.839
 2 AAAS~ 2          1.15      0.598       0.470        3.89       0.670
 3 AAAS~ 3          1.33      0.497       0.325        4          0.644
 4 AAAS~ 4          1.47      0.554       0.373        3.21       0.796
 5 AAAS~ 5          1.35      0.270       0.0704       1.95       0.355
 6 AAAS~ 6          1.15      0.620       0.496        3.89       0.694
 7 AAAS~ 7          1.17      0.561       0.424        3.84       0.638
 8 AAAS~ 8          1.17      0.746       0.651        3.84       0.847
 9 AAAS~ 9          1.29      0.378       0.197        3          0.475
10 AAAS~ 10         1.35      0.439       0.256        3.53       0.576
# ... with 98 more rows, and 1 more variable: item_rel_woi <dbl>
```
…
## Add in 17 item variance

```r
processed <- csv %>% 
  filter(scale == "CON",
         item %in% keep_items) %>% 
  mutate(name = "CON_Short",
         domain = "Short") %>% 
  bind_rows(csv)
processed
```

```
# A tibble: 2,375 x 6
      id name      scale domain  item response
   <dbl> <chr>     <chr> <chr>  <dbl>    <dbl>
 1     1 CON_Short CON   Short      2        3
 2     1 CON_Short CON   Short      3        4
 3     1 CON_Short CON   Short      5        5
 4     1 CON_Short CON   Short      7        3
 5     1 CON_Short CON   Short      8        3
 6     1 CON_Short CON   Short      9        3
 7     1 CON_Short CON   Short     10        3
 8     1 CON_Short CON   Short     11        2
 9     1 CON_Short CON   Short     16        4
10     1 CON_Short CON   Short     17        2
# ... with 2,365 more rows
```
…
